[
  {
    "href": "https://w.on-t.work",
    "img": "/assets/88x31.png",
    "alt": "my web button :3"
  },
  {
    "divider": true
  },
  {
    "href": "https://trypancakes.com",
    "img": "/buttons/pancakes.png",
    "alt": "pancakes"
  },
  {
    "href": "https://sleepy.ink",
    "img": "/buttons/sleepy.png",
    "alt": "sleepy.ink"
  },
  {
    "href": "https://synth.download",
    "img": "/buttons/sneexy.gif",
    "alt": "sneexy"
  },
  {
    "href": "https://freeplay.floof.company",
    "img": "/buttons/freeplay.gif",
    "alt": "freeplay"
  },
  {
    "href": "https://blueb.pages.gay",
    "img": "/buttons/blueb.png",
    "alt": "blueb"
  },
  {
    "href": "https://authenyo.xyz",
    "img": "/buttons/authenyo.gif",
    "alt": "authenyo"
  },
  {
    "href": "https://boxy.neocities.org",
    "img": "https://boxy.neocities.org/images/boxBut.png",
    "alt": "boxy"
  },
  {
    "href": "https://labyrinth.zone/users/yassie_j",
    "img": "/buttons/yassie.gif",
    "alt": "yassie"
  },
  {
    "href": "https://velzie.rip",
    "img": "https://velzie.rip/88x31.png",
    "alt": "velzie"
  },
  {
    "href": "https://larsfrommars.neocities.org",
    "img": "/buttons/lars.png",
    "alt": "lars from mars"
  },
  {
    "href": "https://besties.house",
    "img": "/buttons/besties.gif",
    "alt": "besties.house"
  },
  {
    "href": "https://autumn.town",
    "img": "/buttons/autumn.webp",
    "alt": "autumn town café"
  },
  {
    "href": "https://arimelody.me",
    "img": "/buttons/ari-melody.gif",
    "alt": "ari melody"
  },
  {
    "href": "https://invoxiplaygames.uk",
    "img": "/buttons/ipg.png",
    "alt": "invoxi play games"
  },
  {
    "href": "https://girlthi.ng/~thermia/",
    "img": "https://girlthi.ng/~thermia/img/88x31/thermia.gif",
    "alt": "thermia"
  },
  {
    "divider": true
  },
  {
    "href": "https://plasticdino.neocities.org/graphics",
    "img": "/buttons/nap-time.png",
    "alt": "i need a nap... NOW"
  },
  {
    "href": "https://lu.tiny-universes.net/images-gfx/index.html",
    "img": "/buttons/shithtml.png",
    "alt": "w3c invalid, shit html"
  },
  {
    "img": "/buttons/catscape.gif",
    "alt": "catscape meow"
  },
  {
    "img": "/buttons/dumbass.gif",
    "alt": "dumbass webmaster ahead!"
  },
  {
    "img": "/buttons/apocalypse.png",
    "alt": "apocalypse NOW"
  }
]
